netcdf dictionary_ops_nemo36_varops {
variables:
	float K1x ;
		K1x:nomvar = "K1X" ;
		K1x:stdscale = 1.f ;
		K1x:stdoffset = 0.f ;
	float K1x_u ;
		K1x_u:nomvar = "K1XU" ;
		K1x_u:stdscale = 1.f ;
		K1x_u:stdoffset = 0.f ;
	float K1x_v ;
		K1x_v:nomvar = "K1XV" ;
		K1x_v:stdscale = 1.f ;
		K1x_v:stdoffset = 0.f ;
	float K1y ;
		K1y:nomvar = "K1Y" ;
		K1y:stdscale = 1.f ;
		K1y:stdoffset = 0.f ;
	float K1y_u ;
		K1y_u:nomvar = "K1YU" ;
		K1y_u:stdscale = 1.f ;
		K1y_u:stdoffset = 0.f ;
	float K1y_v ;
		K1y_v:nomvar = "K1YV" ;
		K1y_v:stdscale = 1.f ;
		K1y_v:stdoffset = 0.f ;
	float K2x ;
		K2x:nomvar = "K2X" ;
		K2x:stdscale = 1.f ;
		K2x:stdoffset = 0.f ;
	float K2x_u ;
		K2x_u:nomvar = "K2XU" ;
		K2x_u:stdscale = 1.f ;
		K2x_u:stdoffset = 0.f ;
	float K2x_v ;
		K2x_v:nomvar = "K2XV" ;
		K2x_v:stdscale = 1.f ;
		K2x_v:stdoffset = 0.f ;
	float K2y ;
		K2y:nomvar = "K2Y" ;
		K2y:stdscale = 1.f ;
		K2y:stdoffset = 0.f ;
	float K2y_u ;
		K2y_u:nomvar = "K2YU" ;
		K2y_u:stdscale = 1.f ;
		K2y_u:stdoffset = 0.f ;
	float K2y_v ;
		K2y_v:nomvar = "K2YV" ;
		K2y_v:stdscale = 1.f ;
		K2y_v:stdoffset = 0.f ;
	float M2x ;
		M2x:nomvar = "M2X" ;
		M2x:stdscale = 1.f ;
		M2x:stdoffset = 0.f ;
	float M2x_u ;
		M2x_u:nomvar = "M2XU" ;
		M2x_u:stdscale = 1.f ;
		M2x_u:stdoffset = 0.f ;
	float M2x_v ;
		M2x_v:nomvar = "M2XV" ;
		M2x_v:stdscale = 1.f ;
		M2x_v:stdoffset = 0.f ;
	float M2y ;
		M2y:nomvar = "M2Y" ;
		M2y:stdscale = 1.f ;
		M2y:stdoffset = 0.f ;
	float M2y_u ;
		M2y_u:nomvar = "M2YU" ;
		M2y_u:stdscale = 1.f ;
		M2y_u:stdoffset = 0.f ;
	float M2y_v ;
		M2y_v:nomvar = "M2YV" ;
		M2y_v:stdscale = 1.f ;
		M2y_v:stdoffset = 0.f ;
	float M4x ;
		M4x:nomvar = "M4X" ;
		M4x:stdscale = 1.f ;
		M4x:stdoffset = 0.f ;
	float M4x_u ;
		M4x_u:nomvar = "M4XU" ;
		M4x_u:stdscale = 1.f ;
		M4x_u:stdoffset = 0.f ;
	float M4x_v ;
		M4x_v:nomvar = "M4XV" ;
		M4x_v:stdscale = 1.f ;
		M4x_v:stdoffset = 0.f ;
	float M4y ;
		M4y:nomvar = "M4Y" ;
		M4y:stdscale = 1.f ;
		M4y:stdoffset = 0.f ;
	float M4y_u ;
		M4y_u:nomvar = "M4YU" ;
		M4y_u:stdscale = 1.f ;
		M4y_u:stdoffset = 0.f ;
	float M4y_v ;
		M4y_v:nomvar = "M4YV" ;
		M4y_v:stdscale = 1.f ;
		M4y_v:stdoffset = 0.f ;
	float Mfx ;
		Mfx:nomvar = "MFX" ;
		Mfx:stdscale = 1.f ;
		Mfx:stdoffset = 0.f ;
	float Mfx_u ;
		Mfx_u:nomvar = "MFXU" ;
		Mfx_u:stdscale = 1.f ;
		Mfx_u:stdoffset = 0.f ;
	float Mfx_v ;
		Mfx_v:nomvar = "MFXV" ;
		Mfx_v:stdscale = 1.f ;
		Mfx_v:stdoffset = 0.f ;
	float Mfy ;
		Mfy:nomvar = "MFY" ;
		Mfy:stdscale = 1.f ;
		Mfy:stdoffset = 0.f ;
	float Mfy_u ;
		Mfy_u:nomvar = "MFYU" ;
		Mfy_u:stdscale = 1.f ;
		Mfy_u:stdoffset = 0.f ;
	float Mfy_v ;
		Mfy_v:nomvar = "MFYV" ;
		Mfy_v:stdscale = 1.f ;
		Mfy_v:stdoffset = 0.f ;
	float Mmx ;
		Mmx:nomvar = "MMX" ;
		Mmx:stdscale = 1.f ;
		Mmx:stdoffset = 0.f ;
	float Mmy ;
		Mmy:nomvar = "MMY" ;
		Mmy:stdscale = 1.f ;
		Mmy:stdoffset = 0.f ;
	float N2x ;
		N2x:nomvar = "N2X" ;
		N2x:stdscale = 1.f ;
		N2x:stdoffset = 0.f ;
	float N2x_u ;
		N2x_u:nomvar = "N2XU" ;
		N2x_u:stdscale = 1.f ;
		N2x_u:stdoffset = 0.f ;
	float N2x_v ;
		N2x_v:nomvar = "N2XV" ;
		N2x_v:stdscale = 1.f ;
		N2x_v:stdoffset = 0.f ;
	float N2y ;
		N2y:nomvar = "N2Y" ;
		N2y:stdscale = 1.f ;
		N2y:stdoffset = 0.f ;
	float N2y_u ;
		N2y_u:nomvar = "N2YU" ;
		N2y_u:stdscale = 1.f ;
		N2y_u:stdoffset = 0.f ;
	float N2y_v ;
		N2y_v:nomvar = "N2YV" ;
		N2y_v:stdscale = 1.f ;
		N2y_v:stdoffset = 0.f ;
	float O1x ;
		O1x:nomvar = "O1X" ;
		O1x:stdscale = 1.f ;
		O1x:stdoffset = 0.f ;
	float O1x_u ;
		O1x_u:nomvar = "O1XU" ;
		O1x_u:stdscale = 1.f ;
		O1x_u:stdoffset = 0.f ;
	float O1x_v ;
		O1x_v:nomvar = "O1XV" ;
		O1x_v:stdscale = 1.f ;
		O1x_v:stdoffset = 0.f ;
	float O1y ;
		O1y:nomvar = "O1Y" ;
		O1y:stdscale = 1.f ;
		O1y:stdoffset = 0.f ;
	float O1y_u ;
		O1y_u:nomvar = "O1YU" ;
		O1y_u:stdscale = 1.f ;
		O1y_u:stdoffset = 0.f ;
	float O1y_v ;
		O1y_v:nomvar = "O1YV" ;
		O1y_v:stdscale = 1.f ;
		O1y_v:stdoffset = 0.f ;
	float P1x ;
		P1x:nomvar = "P1X" ;
		P1x:stdscale = 1.f ;
		P1x:stdoffset = 0.f ;
	float P1x_u ;
		P1x_u:nomvar = "P1XU" ;
		P1x_u:stdscale = 1.f ;
		P1x_u:stdoffset = 0.f ;
	float P1x_v ;
		P1x_v:nomvar = "P1XV" ;
		P1x_v:stdscale = 1.f ;
		P1x_v:stdoffset = 0.f ;
	float P1y ;
		P1y:nomvar = "P1Y" ;
		P1y:stdscale = 1.f ;
		P1y:stdoffset = 0.f ;
	float P1y_u ;
		P1y_u:nomvar = "P1YU" ;
		P1y_u:stdscale = 1.f ;
		P1y_u:stdoffset = 0.f ;
	float P1y_v ;
		P1y_v:nomvar = "P1YV" ;
		P1y_v:stdscale = 1.f ;
		P1y_v:stdoffset = 0.f ;
	float Q1x ;
		Q1x:nomvar = "Q1X" ;
		Q1x:stdscale = 1.f ;
		Q1x:stdoffset = 0.f ;
	float Q1x_u ;
		Q1x_u:nomvar = "Q1XU" ;
		Q1x_u:stdscale = 1.f ;
		Q1x_u:stdoffset = 0.f ;
	float Q1x_v ;
		Q1x_v:nomvar = "Q1XV" ;
		Q1x_v:stdscale = 1.f ;
		Q1x_v:stdoffset = 0.f ;
	float Q1y ;
		Q1y:nomvar = "Q1Y" ;
		Q1y:stdscale = 1.f ;
		Q1y:stdoffset = 0.f ;
	float Q1y_u ;
		Q1y_u:nomvar = "Q1YU" ;
		Q1y_u:stdscale = 1.f ;
		Q1y_u:stdoffset = 0.f ;
	float Q1y_v ;
		Q1y_v:nomvar = "Q1YV" ;
		Q1y_v:stdscale = 1.f ;
		Q1y_v:stdoffset = 0.f ;
	float S2x ;
		S2x:nomvar = "S2X" ;
		S2x:stdscale = 1.f ;
		S2x:stdoffset = 0.f ;
	float S2x_u ;
		S2x_u:nomvar = "S2XU" ;
		S2x_u:stdscale = 1.f ;
		S2x_u:stdoffset = 0.f ;
	float S2x_v ;
		S2x_v:nomvar = "S2XV" ;
		S2x_v:stdscale = 1.f ;
		S2x_v:stdoffset = 0.f ;
	float S2y ;
		S2y:nomvar = "S2Y" ;
		S2y:stdscale = 1.f ;
		S2y:stdoffset = 0.f ;
	float S2y_u ;
		S2y_u:nomvar = "S2YU" ;
		S2y_u:stdscale = 1.f ;
		S2y_u:stdoffset = 0.f ;
	float S2y_v ;
		S2y_v:nomvar = "S2YV" ;
		S2y_v:stdscale = 1.f ;
		S2y_v:stdoffset = 0.f ;
	float difvho ;
		difvho:units = "m2/s" ;
		difvho:_FillValue = 1.e+20f ;
		difvho:missing_value = 1.e+20f ;
		difvho:long_name = "vertical eddy diffusivity" ;
		difvho:standard_name = "ocean_vertical_heat_diffusivity" ;
		difvho:coordinates = "time_centered depthw nav_lon nav_lat" ;
		difvho:nomvar = "KZW" ;
		difvho:stdscale = 1.f ;
		difvho:stdoffset = 0.f ;
	float e1t ;
		e1t:units = "m" ;
		e1t:_FillValue = 1.e+20f ;
		e1t:missing_value = 1.e+20f ;
		e1t:long_name = "NEMO grid e1t" ;
		e1t:coordinates = "time_centered nav_lon nav_lat" ;
		e1t:nomvar = "E1T" ;
		e1t:stdscale = 1.f ;
		e1t:stdoffset = 0.f ;
	float e1u ;
		e1u:units = "m" ;
		e1u:_FillValue = 1.e+20f ;
		e1u:missing_value = 1.e+20f ;
		e1u:long_name = "NEMO grid e1u" ;
		e1u:coordinates = "time_centered nav_lon nav_lat" ;
		e1u:nomvar = "E1U" ;
		e1u:stdscale = 1.f ;
		e1u:stdoffset = 0.f ;
	float e1v ;
		e1v:units = "m" ;
		e1v:_FillValue = 1.e+20f ;
		e1v:missing_value = 1.e+20f ;
		e1v:long_name = "NEMO grid e1v" ;
		e1v:coordinates = "time_centered nav_lon nav_lat" ;
		e1v:nomvar = "E1V" ;
		e1v:stdscale = 1.f ;
		e1v:stdoffset = 0.f ;
	float e2t ;
		e2t:units = "m" ;
		e2t:_FillValue = 1.e+20f ;
		e2t:missing_value = 1.e+20f ;
		e2t:long_name = "NEMO grid e2t" ;
		e2t:coordinates = "time_centered nav_lon nav_lat" ;
		e2t:nomvar = "E2T" ;
		e2t:stdscale = 1.f ;
		e2t:stdoffset = 0.f ;
	float e2u ;
		e2u:units = "m" ;
		e2u:_FillValue = 1.e+20f ;
		e2u:missing_value = 1.e+20f ;
		e2u:long_name = "NEMO grid e2u" ;
		e2u:coordinates = "time_centered nav_lon nav_lat" ;
		e2u:nomvar = "E2U" ;
		e2u:stdscale = 1.f ;
		e2u:stdoffset = 0.f ;
	float e2v ;
		e2v:units = "m" ;
		e2v:_FillValue = 1.e+20f ;
		e2v:missing_value = 1.e+20f ;
		e2v:long_name = "NEMO grid e2v" ;
		e2v:coordinates = "time_centered nav_lon nav_lat" ;
		e2v:nomvar = "E2V" ;
		e2v:stdscale = 1.f ;
		e2v:stdoffset = 0.f ;
	float e3t ;
		e3t:units = "m" ;
		e3t:_FillValue = 1.e+20f ;
		e3t:missing_value = 1.e+20f ;
		e3t:long_name = "T-cell thickness" ;
		e3t:standard_name = "cell_thickness" ;
		e3t:coordinates = "time_centered deptht nav_lon nav_lat" ;
		e3t:nomvar = "E3T" ;
		e3t:stdscale = 1.f ;
		e3t:stdoffset = 0.f ;
	float e3t0 ;
		e3t0:units = "m" ;
		e3t0:_FillValue = 1.e+20f ;
		e3t0:missing_value = 1.e+20f ;
		e3t0:long_name = "NEMO grid e3t" ;
		e3t0:coordinates = "time_centered deptht nav_lon nav_lat" ;
		e3t0:nomvar = "E3T" ;
		e3t0:stdscale = 1.f ;
		e3t0:stdoffset = 0.f ;
	float e3u ;
		e3u:units = "m" ;
		e3u:_FillValue = 1.e+20f ;
		e3u:missing_value = 1.e+20f ;
		e3u:long_name = "U-cell thickness" ;
		e3u:standard_name = "cell_thickness" ;
		e3u:coordinates = "time_centered depthu nav_lon nav_lat" ;
		e3u:nomvar = "E3U" ;
		e3u:stdscale = 1.f ;
		e3u:stdoffset = 0.f ;
	float e3u0 ;
		e3u0:units = "m" ;
		e3u0:_FillValue = 1.e+20f ;
		e3u0:missing_value = 1.e+20f ;
		e3u0:long_name = "NEMO grid e3u" ;
		e3u0:coordinates = "time_centered depthu nav_lon nav_lat" ;
		e3u0:nomvar = "E3U" ;
		e3u0:stdscale = 1.f ;
		e3u0:stdoffset = 0.f ;
	float e3v ;
		e3v:units = "m" ;
		e3v:_FillValue = 1.e+20f ;
		e3v:missing_value = 1.e+20f ;
		e3v:long_name = "V-cell thickness" ;
		e3v:standard_name = "cell_thickness" ;
		e3v:coordinates = "time_centered depthv nav_lon nav_lat" ;
		e3v:nomvar = "E3V" ;
		e3v:stdscale = 1.f ;
		e3v:stdoffset = 0.f ;
	float e3v0 ;
		e3v0:units = "m" ;
		e3v0:_FillValue = 1.e+20f ;
		e3v0:missing_value = 1.e+20f ;
		e3v0:long_name = "NEMO grid e3v" ;
		e3v0:coordinates = "time_centered depthv nav_lon nav_lat" ;
		e3v0:nomvar = "E3V" ;
		e3v0:stdscale = 1.f ;
		e3v0:stdoffset = 0.f ;
	short iicethic ;
		iicethic:units = "m" ;
		iicethic:long_name = "Ice thickness" ;
		iicethic:short_name = "iicethic" ;
		iicethic:standard_name = "sea_ice_thickness" ;
		iicethic:coordinates = "nav_lon nav_lat" ;
		iicethic:nomvar = "I8" ;
		iicethic:stdscale = 1.f ;
		iicethic:stdoffset = 0.f ;
	short iicevelu ;
		iicevelu:units = "m s-1" ;
		iicevelu:long_name = "Ice velocity u" ;
		iicevelu:short_name = "iicevelu" ;
		iicevelu:standard_name = "sea_ice_x_velocity" ;
		iicevelu:coordinates = "nav_lon nav_lat" ;
		iicevelu:nomvar = "UICE" ;
		iicevelu:stdscale = 1.f ;
		iicevelu:stdoffset = 0.f ;
	short iicevelv ;
		iicevelv:units = "m s-1" ;
		iicevelv:long_name = "Ice velocity v" ;
		iicevelv:short_name = "iicevelv" ;
		iicevelv:standard_name = "sea_ice_y_velocity" ;
		iicevelv:coordinates = "nav_lon nav_lat" ;
		iicevelv:nomvar = "VICE" ;
		iicevelv:stdscale = 1.f ;
		iicevelv:stdoffset = 0.f ;
	short ileadfra ;
		ileadfra:units = "1e-2" ;
		ileadfra:long_name = "Ice concentration" ;
		ileadfra:short_name = "ileadfra" ;
		ileadfra:standard_name = "sea_ice_area_fraction" ;
		ileadfra:coordinates = "nav_lon nav_lat" ;
		ileadfra:nomvar = "GL" ;
		ileadfra:stdscale = -1.f ;
		ileadfra:stdoffset = 1.f ;
	float mldkz5 ;
		mldkz5:units = "m" ;
		mldkz5:_FillValue = 1.e+20f ;
		mldkz5:missing_value = 1.e+20f ;
		mldkz5:long_name = "Turbocline depth (Kz = 5e-4)" ;
		mldkz5:standard_name = "ocean_mixed_layer_thickness_defined_by_vertical_tracer_diffusivity" ;
		mldkz5:coordinates = "time_centered nav_lon nav_lat" ;
		mldkz5:nomvar = "MLTW" ;
		mldkz5:stdscale = 1.f ;
		mldkz5:stdoffset = 0.f ;
	float mldr10_1 ;
		mldr10_1:units = "m" ;
		mldr10_1:_FillValue = 1.e+20f ;
		mldr10_1:missing_value = 1.e+20f ;
		mldr10_1:long_name = "Mixed Layer Depth (dsigma = 0.01 wrt 10m)" ;
		mldr10_1:standard_name = "ocean_mixed_layer_thickness_defined_by_sigma_theta" ;
		mldr10_1:coordinates = "time_centered nav_lon nav_lat" ;
		mldr10_1:nomvar = "MLW" ;
		mldr10_1:stdscale = 1.f ;
		mldr10_1:stdoffset = 0.f ;
	float mldr10_1dcy ;
		mldr10_1dcy:units = "m" ;
		mldr10_1dcy:_FillValue = 1.e+20f ;
		mldr10_1dcy:missing_value = 1.e+20f ;
		mldr10_1dcy:long_name = "amplitude of mldr10_1 diurnal cycle" ;
		mldr10_1dcy:standard_name = "ocean_mixed_layer_thickness_defined_by_sigma_theta" ;
		mldr10_1dcy:coordinates = "time_centered nav_lon nav_lat" ;
		mldr10_1dcy:nomvar = "MLCW" ;
		mldr10_1dcy:stdscale = 1.f ;
		mldr10_1dcy:stdoffset = 0.f ;
	float precip ;
		precip:units = "kg/m2/s" ;
		precip:_FillValue = 1.e+20f ;
		precip:missing_value = 1.e+20f ;
		precip:long_name = "Total precipitation" ;
		precip:standard_name = "precipitation_flux" ;
		precip:coordinates = "time_centered nav_lon nav_lat" ;
		precip:nomvar = "PRW" ;
		precip:stdscale = 1.f ;
		precip:stdoffset = 0.f ;
	float qla_oce ;
		qla_oce:units = "W/m2" ;
		qla_oce:_FillValue = 1.e+20f ;
		qla_oce:missing_value = 1.e+20f ;
		qla_oce:long_name = "Latent Downward Heat Flux over open ocean" ;
		qla_oce:standard_name = "surface_downward_latent_heat_flux" ;
		qla_oce:coordinates = "time_centered nav_lon nav_lat" ;
		qla_oce:nomvar = "QLAW" ;
		qla_oce:stdscale = 1.f ;
		qla_oce:stdoffset = 0.f ;
	float qlw_oce ;
		qlw_oce:units = "W/m2" ;
		qlw_oce:_FillValue = 1.e+20f ;
		qlw_oce:missing_value = 1.e+20f ;
		qlw_oce:long_name = "Longwave Downward Heat Flux over open ocean" ;
		qlw_oce:standard_name = "surface_net_downward_longwave_flux" ;
		qlw_oce:coordinates = "time_centered nav_lon nav_lat" ;
		qlw_oce:nomvar = "QLWW" ;
		qlw_oce:stdscale = 1.f ;
		qlw_oce:stdoffset = 0.f ;
	float qns ;
		qns:units = "W/m2" ;
		qns:_FillValue = 1.e+20f ;
		qns:missing_value = 1.e+20f ;
		qns:long_name = "non solar Downward Heat Flux" ;
		qns:coordinates = "time_centered nav_lon nav_lat" ;
		qns:nomvar = "QNS" ;
		qns:stdscale = 1.f ;
		qns:stdoffset = 0.f ;
	float qns_oce ;
		qns_oce:units = "W/m2" ;
		qns_oce:_FillValue = 1.e+20f ;
		qns_oce:missing_value = 1.e+20f ;
		qns_oce:long_name = "solar heat flux at ocean surface" ;
		qns_oce:coordinates = "time_centered nav_lon nav_lat" ;
		qns_oce:nomvar = "QNSW" ;
		qns_oce:stdscale = 1.f ;
		qns_oce:stdoffset = 0.f ;
	float qsb_oce ;
		qsb_oce:units = "W/m2" ;
		qsb_oce:_FillValue = 1.e+20f ;
		qsb_oce:missing_value = 1.e+20f ;
		qsb_oce:long_name = "Sensible Downward Heat Flux over open ocean" ;
		qsb_oce:standard_name = "surface_downward_sensible_heat_flux" ;
		qsb_oce:coordinates = "time_centered nav_lon nav_lat" ;
		qsb_oce:nomvar = "QSBW" ;
		qsb_oce:stdscale = 1.f ;
		qsb_oce:stdoffset = 0.f ;
	float qsr ;
		qsr:units = "W/m2" ;
		qsr:_FillValue = 1.e+20f ;
		qsr:missing_value = 1.e+20f ;
		qsr:long_name = "Shortwave Radiation" ;
		qsr:standard_name = "net_downward_shortwave_flux_at_sea_water_surface" ;
		qsr:coordinates = "time_centered nav_lon nav_lat" ;
		qsr:nomvar = "QSR" ;
		qsr:stdscale = 1.f ;
		qsr:stdoffset = 0.f ;
	float qsr_oce ;
		qsr_oce:units = "W/m2" ;
		qsr_oce:_FillValue = 1.e+20f ;
		qsr_oce:missing_value = 1.e+20f ;
		qsr_oce:long_name = "solar heat flux at ocean surface" ;
		qsr_oce:standard_name = "net_downward_shortwave_flux_at_sea_water_surface" ;
		qsr_oce:coordinates = "time_centered nav_lon nav_lat" ;
		qsr_oce:nomvar = "QSRW" ;
		qsr_oce:stdscale = 1.f ;
		qsr_oce:stdoffset = 0.f ;
	float rsntds ;
		rsntds:units = "W/m2" ;
		rsntds:_FillValue = 1.e+20f ;
		rsntds:missing_value = 1.e+20f ;
		rsntds:long_name = "Shortwave Radiation" ;
		rsntds:standard_name = "net_downward_shortwave_flux_at_sea_water_surface" ;
		rsntds:coordinates = "time_centered nav_lon nav_lat" ;
		rsntds:nomvar = "SWNW" ;
		rsntds:stdscale = 1.f ;
		rsntds:stdoffset = 0.f ;
	float runoffs ;
		runoffs:units = "kg/m2/s" ;
		runoffs:_FillValue = 1.e+20f ;
		runoffs:missing_value = 1.e+20f ;
		runoffs:long_name = "water_flux_into_sea_water_from_rivers" ;
		runoffs:standard_name = "water_flux_into_sea_water_from_rivers" ;
		runoffs:coordinates = "time_centered nav_lon nav_lat" ;
		runoffs:nomvar = "RRRW" ;
		runoffs:stdscale = 1.f ;
		runoffs:stdoffset = 0.f ;
	float so ;
		so:units = "1e-3" ;
		so:_FillValue = 1.e+20f ;
		so:missing_value = 1.e+20f ;
		so:long_name = "salinity" ;
		so:standard_name = "sea_water_practical_salinity" ;
		so:coordinates = "time_instant deptht nav_lon nav_lat" ;
		so:nomvar = "SALW" ;
		so:stdscale = 1.f ;
		so:stdoffset = 0.f ;
	float soprecip ;
		soprecip:units = "kg/m2/s" ;
		soprecip:_FillValue = 1.e+20f ;
		soprecip:missing_value = 1.e+20f ;
		soprecip:long_name = "Total precipitation" ;
		soprecip:standard_name = "precipitation_flux" ;
		soprecip:coordinates = "time_centered nav_lon nav_lat" ;
		soprecip:nomvar = "PRW" ;
		soprecip:stdscale = 1.f ;
		soprecip:stdoffset = 0.f ;
	float sos ;
		sos:units = "1e-3" ;
		sos:_FillValue = 1.e+20f ;
		sos:missing_value = 1.e+20f ;
		sos:long_name = "sea_surface_salinity" ;
		sos:standard_name = "sea_surface_salinity" ;
		sos:coordinates = "time_centered nav_lon nav_lat" ;
		sos:nomvar = "SALW" ;
		sos:stdscale = 1.f ;
		sos:stdoffset = 0.f ;
	float sosflxdo ;
		sosflxdo:units = "1e-3/m2/s" ;
		sosflxdo:_FillValue = 1.e+20f ;
		sosflxdo:missing_value = 1.e+20f ;
		sosflxdo:long_name = "Downward salt flux" ;
		sosflxdo:coordinates = "time_centered nav_lon nav_lat" ;
		sosflxdo:nomvar = "SFNW" ;
		sosflxdo:stdscale = 1.f ;
		sosflxdo:stdoffset = 0.f ;
	float sowindsp ;
		sowindsp:units = "m/s" ;
		sowindsp:_FillValue = 1.e+20f ;
		sowindsp:missing_value = 1.e+20f ;
		sowindsp:long_name = "wind speed module" ;
		sowindsp:standard_name = "wind_speed" ;
		sowindsp:coordinates = "time_centered nav_lon nav_lat" ;
		sowindsp:nomvar = "WSPD" ;
		sowindsp:stdscale = 1.f ;
		sowindsp:stdoffset = 0.f ;
	float sstdcy ;
		sstdcy:units = "degC" ;
		sstdcy:_FillValue = 1.e+20f ;
		sstdcy:missing_value = 1.e+20f ;
		sstdcy:long_name = "amplitude of sst diurnal cycle" ;
		sstdcy:standard_name = "sea_surface_temperature" ;
		sstdcy:coordinates = "time_centered nav_lon nav_lat" ;
		sstdcy:nomvar = "DSST" ;
		sstdcy:stdscale = 1.f ;
		sstdcy:stdoffset = 0.f ;
	float taum ;
		taum:units = "N/m2" ;
		taum:_FillValue = 1.e+20f ;
		taum:missing_value = 1.e+20f ;
		taum:long_name = "wind stress module" ;
		taum:standard_name = "magnitude_of_surface_downward_stress" ;
		taum:coordinates = "time_centered nav_lon nav_lat" ;
		taum:nomvar = "STMW" ;
		taum:stdscale = 1.f ;
		taum:stdoffset = 0.f ;
	float tauuo ;
		tauuo:units = "N/m2" ;
		tauuo:_FillValue = 1.e+20f ;
		tauuo:missing_value = 1.e+20f ;
		tauuo:long_name = "Wind Stress along i-axis" ;
		tauuo:standard_name = "surface_downward_x_stress" ;
		tauuo:coordinates = "time_centered nav_lon nav_lat" ;
		tauuo:nomvar = "UTAW" ;
		tauuo:stdscale = 1.f ;
		tauuo:stdoffset = 0.f ;
	float tauvo ;
		tauvo:units = "N/m2" ;
		tauvo:_FillValue = 1.e+20f ;
		tauvo:missing_value = 1.e+20f ;
		tauvo:long_name = "Wind Stress along j-axis" ;
		tauvo:standard_name = "surface_downward_y_stress" ;
		tauvo:coordinates = "time_centered nav_lon nav_lat" ;
		tauvo:nomvar = "VTAW" ;
		tauvo:stdscale = 1.f ;
		tauvo:stdoffset = 0.f ;
	float thetao ;
		thetao:units = "degC" ;
		thetao:_FillValue = 1.e+20f ;
		thetao:missing_value = 1.e+20f ;
		thetao:long_name = "temperature" ;
		thetao:standard_name = "sea_water_potential_temperature" ;
		thetao:coordinates = "time_instant deptht nav_lon nav_lat" ;
		thetao:nomvar = "TM" ;
		thetao:stdscale = 1.f ;
		thetao:stdoffset = -273.16f ;
	float tmask ;
		tmask:units = "-" ;
		tmask:_FillValue = 1.e+20f ;
		tmask:missing_value = 1.e+20f ;
		tmask:long_name = "NEMO grid T-mask" ;
		tmask:coordinates = "time_centered deptht nav_lon nav_lat" ;
		tmask:nomvar = "TMSK" ;
		tmask:stdscale = 1.f ;
		tmask:stdoffset = 0.f ;
	float tmask2 ;
		tmask2:units = "-" ;
		tmask2:_FillValue = 1.e+20f ;
		tmask2:missing_value = 1.e+20f ;
		tmask2:long_name = "NEMO grid T-mask" ;
		tmask2:coordinates = "time_centered deptht nav_lon nav_lat" ;
		tmask2:nomvar = "TMSK" ;
		tmask2:stdscale = 1.f ;
		tmask2:stdoffset = 0.f ;
	float tohfls ;
		tohfls:units = "W/m2" ;
		tohfls:_FillValue = 1.e+20f ;
		tohfls:missing_value = 1.e+20f ;
		tohfls:long_name = "Net Downward Heat Flux" ;
		tohfls:standard_name = "surface_downward_heat_flux_in_sea_water" ;
		tohfls:coordinates = "time_centered nav_lon nav_lat" ;
		tohfls:nomvar = "HFNW" ;
		tohfls:stdscale = 1.f ;
		tohfls:stdoffset = 0.f ;
	float tos ;
		tos:units = "degC" ;
		tos:_FillValue = 1.e+20f ;
		tos:missing_value = 1.e+20f ;
		tos:long_name = "sea_surface_temperature" ;
		tos:standard_name = "sea_surface_temperature" ;
		tos:coordinates = "time_centered nav_lon nav_lat" ;
		tos:nomvar = "TM" ;
		tos:stdscale = 1.f ;
		tos:stdoffset = -273.16f ;
	float tosstd ;
		tosstd:units = "degC" ;
		tosstd:_FillValue = 1.e+20f ;
		tosstd:missing_value = 1.e+20f ;
		tosstd:long_name = "sea surface temperature standard deviation" ;
		tosstd:standard_name = "sea_surface_temperature" ;
		tosstd:coordinates = "time_instant nav_lon nav_lat" ;
		tosstd:nomvar = "TSDW" ;
		tosstd:stdscale = 1.f ;
		tosstd:stdoffset = 0.f ;
	float tosvar ;
		tosvar:units = "degC" ;
		tosvar:long_name = "sea surface temperature variance" ;
		tosvar:standard_name = "sea_surface_temperature" ;
		tosvar:coordinates = "time_instant nav_lon nav_lat" ;
		tosvar:nomvar = "TSVW" ;
		tosvar:stdscale = 1.f ;
		tosvar:stdoffset = 0.f ;
	float umask ;
		umask:units = "-" ;
		umask:_FillValue = 1.e+20f ;
		umask:missing_value = 1.e+20f ;
		umask:long_name = "NEMO grid U-mask" ;
		umask:coordinates = "time_centered depthu nav_lon nav_lat" ;
		umask:nomvar = "UMSK" ;
		umask:stdscale = 1.f ;
		umask:stdoffset = 0.f ;
	float umask2 ;
		umask2:units = "-" ;
		umask2:_FillValue = 1.e+20f ;
		umask2:missing_value = 1.e+20f ;
		umask2:long_name = "NEMO grid U-mask" ;
		umask2:coordinates = "time_centered depthu nav_lon nav_lat" ;
		umask2:nomvar = "UMSK" ;
		umask2:stdscale = 1.f ;
		umask2:stdoffset = 0.f ;
	float uo ;
		uo:units = "m/s" ;
		uo:_FillValue = 1.e+20f ;
		uo:missing_value = 1.e+20f ;
		uo:long_name = "ocean current along i-axis" ;
		uo:standard_name = "sea_water_x_velocity" ;
		uo:coordinates = "time_instant depthu nav_lon nav_lat" ;
		uo:nomvar = "UUW" ;
		uo:stdscale = 1.f ;
		uo:stdoffset = 0.f ;
	float uos ;
		uos:units = "m/s" ;
		uos:_FillValue = 1.e+20f ;
		uos:missing_value = 1.e+20f ;
		uos:long_name = "ocean surface current along i-axis" ;
		uos:coordinates = "time_centered nav_lon nav_lat" ;
		uos:nomvar = "UUW" ;
		uos:stdscale = 1.f ;
		uos:stdoffset = 0.f ;
	float vmask ;
		vmask:units = "-" ;
		vmask:_FillValue = 1.e+20f ;
		vmask:missing_value = 1.e+20f ;
		vmask:long_name = "NEMO grid V-mask" ;
		vmask:coordinates = "time_centered depthv nav_lon nav_lat" ;
		vmask:nomvar = "VMSK" ;
		vmask:stdscale = 1.f ;
		vmask:stdoffset = 0.f ;
	float vmask2 ;
		vmask2:units = "-" ;
		vmask2:_FillValue = 1.e+20f ;
		vmask2:missing_value = 1.e+20f ;
		vmask2:long_name = "NEMO grid V-mask" ;
		vmask2:coordinates = "time_centered depthv nav_lon nav_lat" ;
		vmask2:nomvar = "VMSK" ;
		vmask2:stdscale = 1.f ;
		vmask2:stdoffset = 0.f ;
	float vo ;
		vo:units = "m/s" ;
		vo:_FillValue = 1.e+20f ;
		vo:missing_value = 1.e+20f ;
		vo:long_name = "ocean current along j-axis" ;
		vo:standard_name = "sea_water_y_velocity" ;
		vo:coordinates = "time_instant depthv nav_lon nav_lat" ;
		vo:nomvar = "VVW" ;
		vo:stdscale = 1.f ;
		vo:stdoffset = 0.f ;
	float vos ;
		vos:units = "m/s" ;
		vos:_FillValue = 1.e+20f ;
		vos:missing_value = 1.e+20f ;
		vos:long_name = "ocean surface current along j-axis" ;
		vos:coordinates = "time_centered nav_lon nav_lat" ;
		vos:nomvar = "VVW" ;
		vos:stdscale = 1.f ;
		vos:stdoffset = 0.f ;
	float wfo ;
		wfo:units = "kg/m2/s" ;
		wfo:_FillValue = 1.e+20f ;
		wfo:missing_value = 1.e+20f ;
		wfo:long_name = "Net Upward Water Flux" ;
		wfo:standard_name = "water_flux_out_of_sea_ice_and_sea_water" ;
		wfo:coordinates = "time_centered nav_lon nav_lat" ;
		wfo:nomvar = "UFW" ;
		wfo:stdscale = 1.f ;
		wfo:stdoffset = 0.f ;
	float wmask ;
		wmask:units = "-" ;
		wmask:_FillValue = 1.e+20f ;
		wmask:missing_value = 1.e+20f ;
		wmask:long_name = "NEMO grid W-mask" ;
		wmask:coordinates = "time_centered depthw nav_lon nav_lat" ;
		wmask:nomvar = "WMSK" ;
		wmask:stdscale = 1.f ;
		wmask:stdoffset = 0.f ;
	float wo ;
		wo:units = "m/s" ;
		wo:_FillValue = 1.e+20f ;
		wo:missing_value = 1.e+20f ;
		wo:long_name = "ocean vertical velocity" ;
		wo:standard_name = "upward_sea_water_velocity" ;
		wo:coordinates = "time_centered depthw nav_lon nav_lat" ;
		wo:nomvar = "WWW" ;
		wo:stdscale = 1.f ;
		wo:stdoffset = 0.f ;
	float zos ;
		zos:units = "m" ;
		zos:_FillValue = 1.e+20f ;
		zos:missing_value = 1.e+20f ;
		zos:long_name = "sea_surface_height_above_geoid" ;
		zos:standard_name = "sea_surface_height_above_geoid" ;
		zos:coordinates = "time_centered nav_lon nav_lat" ;
		zos:nomvar = "SSH" ;
		zos:stdscale = 1.f ;
		zos:stdoffset = 0.f ;
	float ssh_ib ;
		ssh_ib:standard_name = "tidal contribution to `sea_surface_height_above_geoid" ;
		ssh_ib:long_name = "tidal_contribution_to_ssh" ;
		ssh_ib:units = "m" ;
		ssh_ib:_FillValue = 1.e+20f ;
		ssh_ib:missing_value = 1.e+20f ;
		ssh_ib:coordinates = "time_centered nav_lat nav_lon" ;
		ssh_ib:nomvar = "SSHP" ;
		ssh_ib:stdscale = 1.f ;
		ssh_ib:stdoffset = 0.f ;
	float ssh_tide ;
		ssh_tide:standard_name = "tidal contribution to `sea_surface_height_above_geoid" ;
		ssh_tide:long_name = "tidal_contribution_to_ssh" ;
		ssh_tide:units = "m" ;
		ssh_tide:_FillValue = 1.e+20f ;
		ssh_tide:missing_value = 1.e+20f ;
		ssh_tide:coordinates = "time_centered nav_lat nav_lon" ;
		ssh_tide:nomvar = "SSHT" ;
		ssh_tide:stdscale = 1.f ;
		ssh_tide:stdoffset = 0.f ;
	float zosstd ;
		zosstd:units = "m" ;
		zosstd:_FillValue = 1.e+20f ;
		zosstd:missing_value = 1.e+20f ;
		zosstd:long_name = "sea surface height above geoid standard deviation" ;
		zosstd:standard_name = "sea_surface_height_above_geoid" ;
		zosstd:coordinates = "time_instant nav_lon nav_lat" ;
		zosstd:nomvar = "HSDW" ;
		zosstd:stdscale = 1.f ;
		zosstd:stdoffset = 0.f ;
	float zosvar ;
		zosvar:units = "m" ;
		zosvar:long_name = "sea surface height above geoid standard deviation" ;
		zosvar:standard_name = "sea_surface_height_above_geoid" ;
		zosvar:coordinates = "time_instant nav_lon nav_lat" ;
		zosvar:nomvar = "HSVW" ;
		zosvar:stdscale = 1.f ;
		zosvar:stdoffset = 0.f ;
	float Mmx_u ;
		Mmx_u:nomvar = "MMXU" ;
		Mmx_u:stdscale = 1.f ;
		Mmx_u:stdoffset = 0.f ;
	float Mmy_u ;
		Mmy_u:nomvar = "MMYU" ;
		Mmy_u:stdscale = 1.f ;
		Mmy_u:stdoffset = 0.f ;
	float Mmx_v ;
		Mmx_v:nomvar = "MMXV" ;
		Mmx_v:stdscale = 1.f ;
		Mmx_v:stdoffset = 0.f ;
	float Mmy_v ;
		Mmy_v:nomvar = "MMYV" ;
		Mmy_v:stdscale = 1.f ;
		Mmy_v:stdoffset = 0.f ;
	float Mn4x ;
		Mn4x:nomvar = "U4X" ;
		Mn4x:stdscale = 1.f ;
		Mn4x:stdoffset = 0.f ;
	float Mn4y ;
		Mn4y:nomvar = "U4Y" ;
		Mn4y:stdscale = 1.f ;
		Mn4y:stdoffset = 0.f ;
	float Mn4x_u ;
		Mn4x_u:nomvar = "U4XU" ;
		Mn4x_u:stdscale = 1.f ;
		Mn4x_u:stdoffset = 0.f ;
	float Mn4y_u ;
		Mn4y_u:nomvar = "U4YU" ;
		Mn4y_u:stdscale = 1.f ;
		Mn4y_u:stdoffset = 0.f ;
	float Mn4x_v ;
		Mn4x_v:nomvar = "U4XV" ;
		Mn4x_v:stdscale = 1.f ;
		Mn4x_v:stdoffset = 0.f ;
	float Mn4y_v ;
		Mn4y_v:nomvar = "U4YV" ;
		Mn4y_v:stdscale = 1.f ;
		Mn4y_v:stdoffset = 0.f ;
	float Ms4x ;
		Ms4x:nomvar = "V4X" ;
		Ms4x:stdscale = 1.f ;
		Ms4x:stdoffset = 0.f ;
	float Ms4y ;
		Ms4y:nomvar = "V4Y" ;
		Ms4y:stdscale = 1.f ;
		Ms4y:stdoffset = 0.f ;
	float Ms4x_u ;
		Ms4x_u:nomvar = "V4XU" ;
		Ms4x_u:stdscale = 1.f ;
		Ms4x_u:stdoffset = 0.f ;
	float Ms4y_u ;
		Ms4y_u:nomvar = "V4YU" ;
		Ms4y_u:stdscale = 1.f ;
		Ms4y_u:stdoffset = 0.f ;
	float Ms4x_v ;
		Ms4x_v:nomvar = "V4XV" ;
		Ms4x_v:stdscale = 1.f ;
		Ms4x_v:stdoffset = 0.f ;
	float Ms4y_v ;
		Ms4y_v:nomvar = "V4YV" ;
		Ms4y_v:stdscale = 1.f ;
		Ms4y_v:stdoffset = 0.f ;
	float h10 ;
		h10:units = "J/m2" ;
		h10:_FillValue = 1.e+20f ;
		h10:missing_value = 1.e+20f ;
		h10:long_name = "Heat content 0-10m" ;
		h10:standard_name = "integral_of_sea_water_potential_temperature_wrt_depth_expressed_as_heat_content" ;
		h10:coordinates = "time_centered nav_lat nav_lon" ;
		h10:nomvar = "HCW" ;
		h10:ip1 = 75597472 ;
		h10:stdscale = 1.f ;
		h10:stdoffset = 0.f ;
	float h1c ;
		h1c:units = "J/m2" ;
		h1c:_FillValue = 1.e+20f ;
		h1c:missing_value = 1.e+20f ;
		h1c:long_name = "Heat content 0-100m" ;
		h1c:standard_name = "integral_of_sea_water_potential_temperature_wrt_depth_expressed_as_heat_content" ;
		h1c:coordinates = "time_centered nav_lat nav_lon" ;
		h1c:nomvar = "HCW" ;
		h1c:ip1 = 74548896 ;
		h1c:stdscale = 1.f ;
		h1c:stdoffset = 0.f ;
	float h3c ;
		h3c:units = "J/m2" ;
		h3c:_FillValue = 1.e+20f ;
		h3c:missing_value = 1.e+20f ;
		h3c:long_name = "Heat content 0-300m" ;
		h3c:standard_name = "integral_of_sea_water_potential_temperature_wrt_depth_expressed_as_heat_content" ;
		h3c:coordinates = "time_centered nav_lat nav_lon" ;
		h3c:nomvar = "HCW" ;
		h3c:ip1 = 74748896 ;
		h3c:stdscale = 1.f ;
		h3c:stdoffset = 0.f ;
	float s10 ;
		s10:units = "0.001*kg/m2" ;
		s10:_FillValue = 1.e+20f ;
		s10:missing_value = 1.e+20f ;
		s10:long_name = "Salt content 0-10m" ;
		s10:standard_name = "integral_of_sea_water_salinity_wrt_depth" ;
		s10:coordinates = "time_centered nav_lat nav_lon" ;
		s10:nomvar = "SCW" ;
		s10:ip1 = 75597472 ;
		s10:stdscale = 1.f ;
		s10:stdoffset = 0.f ;
	float s1c ;
		s1c:units = "0.001*kg/m2" ;
		s1c:_FillValue = 1.e+20f ;
		s1c:missing_value = 1.e+20f ;
		s1c:long_name = "Salt content 0-100m" ;
		s1c:standard_name = "integral_of_sea_water_salinity_wrt_depth" ;
		s1c:coordinates = "time_centered nav_lat nav_lon" ;
		s1c:nomvar = "SCW" ;
		s1c:ip1 = 74548896 ;
		s1c:stdscale = 1.f ;
		s1c:stdoffset = 0.f ;
	float s3c ;
		s3c:units = "0.001*kg/m2" ;
		s3c:_FillValue = 1.e+20f ;
		s3c:missing_value = 1.e+20f ;
		s3c:long_name = "Salt content 0-300m" ;
		s3c:standard_name = "integral_of_sea_water_salinity_wrt_depth" ;
		s3c:coordinates = "time_centered nav_lat nav_lon" ;
		s3c:nomvar = "SCW" ;
		s3c:ip1 = 74748896 ;
		s3c:stdscale = 1.f ;
		s3c:stdoffset = 0.f ;
	float \20d ;
		\20d:units = "m" ;
		\20d:_FillValue = 1.e+20f ;
		\20d:missing_value = 1.e+20f ;
		\20d:long_name = "Depth of 20C isotherm" ;
		\20d:standard_name = "depth_of_isosurface_of_sea_water_potential_temperature" ;
		\20d:coordinates = "time_centered nav_lat nav_lon" ;
		\20d:nomvar = "DTW" ;
		\20d:ip1 = 58920256 ;
		\20d:stdscale = 1.f ;
		\20d:stdoffset = 0.f ;
	float \26d ;
		\26d:units = "m" ;
		\26d:_FillValue = 1.e+20f ;
		\26d:missing_value = 1.e+20f ;
		\26d:long_name = "Depth of 26C isotherm" ;
		\26d:standard_name = "depth_of_isosurface_of_sea_water_potential_temperature" ;
		\26d:coordinates = "time_centered nav_lat nav_lon" ;
		\26d:nomvar = "DTW" ;
		\26d:ip1 = 58980256 ;
		\26d:stdscale = 1.f ;
		\26d:stdoffset = 0.f ;
	float hhp ;
		hhp:units = "J/m2" ;
		hhp:_FillValue = 1.e+20f ;
		hhp:missing_value = 1.e+20f ;
		hhp:long_name = "Tropical Cyclone (Hurricane) Heat Potential" ;
		hhp:standard_name = "integral_of_sea_water_potential_temperature_wrt_26C_isotherm_expressed_as_heat_content" ;
		hhp:coordinates = "time_centered nav_lat nav_lon" ;
		hhp:nomvar = "HCCW" ;
		hhp:ip1 = 58980256 ;
		hhp:stdscale = 1.f ;
		hhp:stdoffset = 0.f ;
	float sosvar ;
		sosvar:units = "0.001" ;
		sosvar:_FillValue = 1.e+20f ;
		sosvar:missing_value = 1.e+20f ;
		sosvar:long_name = "sea surface salinity variance" ;
		sosvar:standard_name = "sea_surface_salinity" ;
		sosvar:coordinates = "time_instant nav_lat nav_lon" ;
		sosvar:nomvar = "SSVW" ;
		sosvar:stdscale = 1.f ;
		sosvar:stdoffset = 0.f ;
	float u30 ;
		u30:units = "m/s" ;
		u30:_FillValue = 1.e+20f ;
		u30:missing_value = 1.e+20f ;
		u30:long_name = "Depth mean x velocity 0-30m" ;
		u30:standard_name = "mean_x_velocity_wrt_depth" ;
		u30:coordinates = "time_centered nav_lat nav_lon" ;
		u30:nomvar = "UU2W" ;
		u30:ip1 = 75797472 ;
		u30:stdscale = 1.f ;
		u30:stdoffset = 0.f ;
	float v30 ;
		v30:units = "m/s" ;
		v30:_FillValue = 1.e+20f ;
		v30:missing_value = 1.e+20f ;
		v30:long_name = "Depth mean y velocity 0-30m" ;
		v30:standard_name = "mean_y_velocity_wrt_depth" ;
		v30:coordinates = "time_centered nav_lat nav_lon" ;
		v30:nomvar = "VV2W" ;
		v30:ip1 = 75797472 ;
		v30:stdscale = 1.f ;
		v30:stdoffset = 0.f ;
	float sbt ;
		sbt:units = "degC" ;
		sbt:_FillValue = 1.e+20f ;
		sbt:missing_value = 1.e+20f ;
		sbt:long_name = "sea bottom temperature" ;
		sbt:coordinates = "time_centered nav_lon nav_lat" ;
		sbt:nomvar = "TM" ;
		sbt:ip1 = 26314400 ;
		sbt:stdscale = 1.f ;
		sbt:stdoffset = -273.16f ;
	float sbs ;
		sbs:units = "0.001" ;
		sbs:_FillValue = 1.e+20f ;
		sbs:missing_value = 1.e+20f ;
		sbs:long_name = "sea bottom salinity" ;
		sbs:coordinates = "time_centered nav_lat nav_lon" ;
		sbs:nomvar = "SALW" ;
		sbs:ip1 = 26314400 ;
		sbs:stdscale = 1.f ;
		sbs:stdoffset = 0.f ;
	float sbu ;
		sbu:units = "m/s" ;
		sbu:_FillValue = 1.e+20f ;
		sbu:missing_value = 1.e+20f ;
		sbu:long_name = "ocean bottom current along i-axis" ;
		sbu:coordinates = "time_centered nav_lat nav_lon" ;
		sbu:nomvar = "UUW" ;
		sbu:ip1 = 26314400 ;
		sbu:stdscale = 1.f ;
		sbu:stdoffset = 0.f ;
	float sbv ;
		sbv:units = "m/s" ;
		sbv:_FillValue = 1.e+20f ;
		sbv:missing_value = 1.e+20f ;
		sbv:long_name = "ocean bottom current along j-axis" ;
		sbv:coordinates = "time_centered nav_lat nav_lon" ;
		sbv:nomvar = "VVW" ;
		sbv:ip1 = 26314400 ;
		sbv:stdscale = 1.f ;
		sbv:stdoffset = 0.f ;

// global attributes:
		:history = "Fri Mar 15 13:47:54 2019: Fred Dupont added back sbs/u/v\n",
			"Thu Mar 14 20:38:05 2019: Fred Dupont added nomvar and ip1 as approved by VarComm\n",
			"Fri Jan 25 14:10:09 2019: ncks -a -x -v u30,v30 dictionary_v1.0.nc dictionary.nc\n",
			"Tue Nov 20 21:26:40 2018: ncatted -a nomvar,K1y,o,c,K1Y dictionary_v1.0.nc\n",
			"Tue Nov 20 21:25:36 2018: ncatted -a nomvar,K1y,o,c,K1y dictionary_v1.0.nc\n",
			"Tue Nov 20 21:25:28 2018: ncatted -a nomvar,K1x,o,c,K1X dictionary_v1.0.nc\n",
			"Tue Nov 20 21:24:58 2018: ncatted -a nomvar,K1x,o,c,allo dictionary_v1.0.nc\n",
			"Thu Dec 22 14:14:28 2016: ncks -x -v Mmx_v ./cnfs/dictionary.nc ./cnfs/dictionary.nc2\n",
			"Thu Dec 22 14:14:18 2016: ncks -x -v Mmy_u ./cnfs/dictionary.nc ./cnfs/dictionary.nc2\n",
			"Thu Dec 22 14:14:04 2016: ncks -x -v Mmx_u ./cnfs/dictionary.nc ./cnfs/dictionary.nc2\n",
			"Tue Dec 20 21:01:56 2016: ncks -x -v tosvar ./cnfs/dictionary.nc ./cnfs/dictionary.nc2\n",
			"Fri Nov  4 14:50:20 2016: ncks -x -v M2x_u ./cnfs/dictionary.nc ./cnfs/dictionary.nc2\n",
			"Fri Nov  4 14:46:24 2016: ncks -x -v K1x ./cnfs/dictionary.nc ./cnfs/dictionary.nc2" ;
		:NCO = "4.4.2" ;
}
